{
  "type": "minecraft:block",
  "pools": [
    {
      "bonus_rolls": 0.0,
      "entries": [
        {
          "type": "minecraft:item",
          "conditions": [
            {
              "block": "pfm:skyroot_aether_gray_simple_bed",
              "condition": "minecraft:block_state_property",
              "properties": {
                "part": "head"
              }
            }
          ],
          "name": "pfm:skyroot_aether_gray_simple_bed"
        }
      ],
      "rolls": 1.0
    }
  ]
}